org/gemoc/execution/engine/org.gemoc.execution.engine.example/model/trace/Simulation2013_1010_095404/TrafficControl_MoCC_new2013_1010_095404.vcd
$date 
Thu Oct 10 09:54:05 CEST 2013
$end

$version 
VCD Generation 2.1.0
$end

$comment alias mainBlock__minutes_initialize "mainBlock::minutes_initialize" $end
$comment alias mainBlock__minutes_ticks "mainBlock::minutes_ticks" $end
$comment alias mainBlock__initialization "mainBlock::initialization" $end
$comment scale 0.1  $end
$comment relation   "TrafficControl_MoCC_new2013_1010_095404.ccslrelationmodel" $end
$comment xmi  mainBlock__minutes_initialize "TrafficControl_MoCC_new2013_1010_095404.trace#//@references.0" $end
$comment xmi  mainBlock__minutes_ticks "TrafficControl_MoCC_new2013_1010_095404.trace#//@references.1" $end
$comment xmi  mainBlock__initialization "TrafficControl_MoCC_new2013_1010_095404.trace#//@references.2" $end
$scope module top $end
$var event 1 !1 mainBlock__minutes_initialize $end
$var event 1 !2 mainBlock__minutes_ticks $end
$var event 1 !3 mainBlock__initialization $end
$upscope $end
$enddefinitions $end

#0
1!1
1!3
#10
1!2
z!3
#20
1!1
z!2
z!3
#30
1!1
z!2
z!3
#40
1!1
z!2
z!3
#50
1!1
z!2
z!3
#60
1!1
z!2
z!3
#70
1!1
z!2
z!3
#80
1!1
z!2
z!3
#90
1!1
z!2
z!3
#100
1!1
z!2
z!3
#110
1!1
z!2
z!3
#120
1!1
z!2
z!3
#130
1!1
z!2
z!3
#140
1!1
z!2
z!3
#150
1!1
z!2
z!3
#160
1!1
z!2
z!3
#170
1!1
z!2
z!3
#180
1!1
z!2
z!3
#190
1!1
z!2
z!3
#200
1!1
z!2
z!3
#210
1!1
z!2
z!3
#220
1!1
z!2
z!3
#230
1!1
z!2
z!3
#240
1!1
z!2
z!3
#250
1!1
z!2
z!3
#260
1!1
z!2
z!3
#270
1!1
z!2
z!3
#280
1!1
z!2
z!3
#290
1!1
z!2
z!3
#300
1!1
z!2
z!3
#310
1!1
z!2
z!3
#320
1!1
z!2
z!3
#330
1!1
z!2
z!3
#340
1!1
z!2
z!3
#350
1!1
z!2
z!3
#360
1!1
z!2
z!3
#370
1!1
z!2
z!3
#380
1!1
z!2
z!3
#390
1!1
z!2
z!3
#400
1!1
z!2
z!3
#410
1!1
z!2
z!3
#420
1!1
z!2
z!3
#430
1!1
z!2
z!3
#440
1!1
z!2
z!3
#450
1!1
z!2
z!3
#460
1!1
z!2
z!3
#470
1!1
z!2
z!3
#480
1!1
z!2
z!3
#490
1!1
z!2
z!3
#500
1!1
z!2
z!3
#510
1!1
z!2
z!3
#520
1!1
z!2
z!3
#530
1!1
z!2
z!3
#540
1!1
z!2
z!3
#550
1!1
z!2
z!3
#560
1!1
z!2
z!3
#570
1!1
z!2
z!3
#580
1!1
z!2
z!3
#590
1!1
z!2
z!3
#600
1!1
z!2
z!3
#610
1!1
z!2
z!3
#620
1!1
z!2
z!3
#630
1!1
z!2
z!3
#640
1!1
z!2
z!3
#650
1!1
z!2
z!3
#660
1!1
z!2
z!3
#670
1!1
z!2
z!3
#680
1!1
z!2
z!3
#690
1!1
z!2
z!3
#700
1!1
z!2
z!3
#710
1!1
z!2
z!3
#720
1!1
z!2
z!3
#730
1!1
z!2
z!3
#740
1!1
z!2
z!3
#750
1!1
z!2
z!3
#760
1!1
z!2
z!3
#770
1!1
z!2
z!3
#780
1!1
z!2
z!3
#790
1!1
z!2
z!3
#800
1!1
z!2
z!3
#810
1!1
z!2
z!3
#820
1!1
z!2
z!3
#830
1!1
z!2
z!3
#840
1!1
z!2
z!3
#850
1!1
z!2
z!3
#860
1!1
z!2
z!3
#870
1!1
z!2
z!3
#880
1!1
z!2
z!3
#890
1!1
z!2
z!3
#900
1!1
z!2
z!3
#910
1!1
z!2
z!3
#920
1!1
z!2
z!3
#930
1!1
z!2
z!3
#940
1!1
z!2
z!3
#950
1!1
z!2
z!3
#960
1!1
z!2
z!3
#970
1!1
z!2
z!3
#980
1!1
z!2
z!3
#990
1!1
z!2
z!3
#1000
z!1
z!2
z!3
