org/gemoc/execution/engine/org.gemoc.execution.engine.example/model/trace/Simulation2013_1009_172637/TrafficControl_MoCC_new2013_1009_172637.vcd
$date 
Wed Oct 09 17:26:38 CEST 2013
$end

$version 
VCD Generation 2.1.0
$end

$comment alias mainBlock__minutes_initialize "mainBlock::minutes_initialize" $end
$comment alias mainBlock__minutes_ticks "mainBlock::minutes_ticks" $end
$comment scale 0.1  $end
$comment relation   "TrafficControl_MoCC_new2013_1009_172637.ccslrelationmodel" $end
$comment xmi  mainBlock__minutes_ticks "TrafficControl_MoCC_new2013_1009_172637.trace#//@references.0" $end
$comment xmi  mainBlock__minutes_initialize "TrafficControl_MoCC_new2013_1009_172637.trace#//@references.1" $end
$scope module top $end
$var event 1 !1 mainBlock__minutes_initialize $end
$var event 1 !2 mainBlock__minutes_ticks $end
$upscope $end
$enddefinitions $end

#0
1!2
#10
1!1
#20
1!2
#30
1!2
1!1
#40
1!2
1!1
#50
1!2
#60
1!1
#70
1!1
#80
1!2
1!1
#90
1!1
#100
1!1
#110
1!2
1!1
#120
1!2
#130
1!2
1!1
#140
1!2
1!1
#150
1!2
#160
1!2
#170
1!2
#180
1!2
#190
1!2
#200
1!1
#210
1!2
1!1
#220
1!1
#230
1!1
#240
1!2
#250
1!2
#260
1!2
#270
1!2
#280
1!1
#290
1!1
#300
1!2
#310
1!2
1!1
#320
1!1
#330
1!1
#340
1!1
#350
1!2
1!1
#360
1!1
#370
1!1
#380
1!2
1!1
#390
1!1
#400
1!2
#410
1!1
#420
1!2
1!1
#430
1!2
#440
1!2
1!1
#450
1!1
#460
1!2
#470
1!2
1!1
#480
1!2
1!1
#490
1!2
#500
1!2
#510
1!2
1!1
#520
1!2
1!1
#530
1!2
1!1
#540
1!2
1!1
#550
1!1
#560
1!2
#570
1!1
#580
1!2
#590
1!2
#600
1!1
#610
1!2
1!1
#620
1!2
#630
1!1
#640
1!2
1!1
#650
1!1
#660
1!1
#670
1!2
#680
1!1
#690
1!1
#700
1!2
1!1
#710
1!2
#720
1!2
1!1
#730
1!2
1!1
#740
1!2
#750
1!1
#760
1!2
1!1
#770
1!2
#780
1!2
1!1
#790
1!1
#800
1!2
1!1
#810
1!1
#820
1!2
#830
1!1
#840
1!2
1!1
#850
1!1
#860
1!2
1!1
#870
1!2
1!1
#880
1!2
#890
1!1
#900
1!1
#910
1!2
1!1
#920
1!2
#930
1!2
#940
1!2
1!1
#950
1!1
#960
1!2
1!1
#970
1!2
1!1
#980
1!1
#990
1!1
#1000
z!1
z!2
