org/gemoc/execution/engine/org.gemoc.execution.engine.example/model/trace/Simulation2013_1010_095328/TrafficControl_MoCC_new2013_1010_095328.vcd
$date 
Thu Oct 10 09:53:29 CEST 2013
$end

$version 
VCD Generation 2.1.0
$end

$comment alias mainBlock__minutes_initialize "mainBlock::minutes_initialize" $end
$comment alias mainBlock__minutes_ticks "mainBlock::minutes_ticks" $end
$comment alias mainBlock__initialization "mainBlock::initialization" $end
$comment scale 0.1  $end
$comment relation   "TrafficControl_MoCC_new2013_1010_095328.ccslrelationmodel" $end
$comment xmi  mainBlock__minutes_ticks "TrafficControl_MoCC_new2013_1010_095328.trace#//@references.0" $end
$comment xmi  mainBlock__minutes_initialize "TrafficControl_MoCC_new2013_1010_095328.trace#//@references.1" $end
$comment xmi  mainBlock__initialization "TrafficControl_MoCC_new2013_1010_095328.trace#//@references.2" $end
$scope module top $end
$var event 1 !1 mainBlock__minutes_initialize $end
$var event 1 !2 mainBlock__minutes_ticks $end
$var event 1 !3 mainBlock__initialization $end
$upscope $end
$enddefinitions $end

#0
1!1
#10
1!1
#20
1!1
#30
1!1
#40
1!1
#50
1!1
#60
1!1
#70
1!1
#80
1!1
#90
1!1
#100
1!1
#110
1!1
#120
1!1
#130
1!1
#140
1!1
#150
1!1
#160
1!1
#170
1!1
#180
1!1
#190
1!1
#200
1!1
#210
1!1
#220
1!1
#230
1!1
#240
1!1
#250
1!1
#260
1!1
#270
1!1
#280
1!1
#290
1!1
#300
1!1
#310
1!1
#320
1!1
#330
1!1
#340
1!1
#350
1!1
#360
1!1
#370
1!1
#380
1!1
#390
1!1
#400
1!1
#410
1!1
#420
1!1
#430
1!1
#440
1!1
#450
1!1
#460
1!1
#470
1!1
#480
1!1
#490
1!1
#500
1!1
#510
1!1
#520
1!1
#530
1!1
#540
1!1
#550
1!1
#560
1!1
#570
1!1
#580
1!1
#590
1!1
#600
1!1
#610
1!1
#620
1!1
#630
1!1
#640
1!1
#650
1!1
#660
1!1
#670
1!1
#680
1!1
#690
1!1
#700
1!1
#710
1!1
#720
1!1
#730
1!1
#740
1!1
#750
1!1
#760
1!1
#770
1!1
#780
1!1
#790
1!1
#800
1!1
#810
1!1
#820
1!1
#830
1!1
#840
1!1
#850
1!1
#860
1!1
#870
1!1
#880
1!1
#890
1!1
#900
1!1
#910
1!1
#920
1!1
#930
1!1
#940
1!1
#950
1!1
#960
1!1
#970
1!1
#980
1!1
#990
1!1
#1000
z!1
z!2
z!3
